Перевести из десятичной системы счисления в двоичную:

12(10) -> ?(2)	12/2 = 0	6/2=0	3/2=1	1							                                Ответ: 12(10) -> 00001100(2)
44(10) -> ?(2)	44/2=0	22/2=0	11/2=1	5/2=1	2/2=0	1						        Ответ: 12(10) -> 00101100(2)
89(10) -> ?(2)	89/2= 1	44/2=0	22/2=0	11/2=1	5/2=1	2/2=0	1					Ответ: 12(10) -> 01011001(2)
99(10) -> ?(2)	99/2=1	49/2=1	24/2=0	12/2=0	6/2=0	3/2=1	1					Ответ: 12(10) -> 01100011(2)

Перевести из двоичной системы счисления в десятичную:
	                                76543210
01111101(2) -> ?(10)	01111101	 0*2^7 +	1*2^6+	1*2^5+	1*2^4+	1*2^3+	1*2^2+	0*2^1+	1*2^0	= 0+64+32+16+8+4+0+1 = 125
00110111(2) -> ?(10)	00110111	 0*2^7+	0*2^6+	1*2^5+	1*2^4+	0*2^3+	1*2^2+	1*2^1+	1*2^0	= 0+0+32+16+0+4+2+1   = 55
00000101(2) -> ?(10)	00000101 0*2^7+	0*2^6+	0*2^5+	0*2^4+	0*2^3+	1*2^2+	0*2^1+	1*2^0	= 0+0+0+0+0+4+0+1      = 5
01110111(2) -> ?(10)	01110111	 0*2^7+	1*2^6+	1*2^5+	1*2^4+	0*2^3+	1*2^2+	1*2^1+	1*2^0	= 0+64+32+16+0+4+2+1 = 119
Ответ: 01111101(2) -> 125(10);
            00110111(2) -> 55(10);
            00000101(2) -> 5(10);
            01110111(2) -> 119(10).
